%YAML 1.1
%TAG !u! tag:unity3d.com,2011:
--- !u!1 &75183989895643786
GameObject:
  m_ObjectHideFlags: 0
  m_CorrespondingSourceObject: {fileID: 0}
  m_PrefabInstance: {fileID: 0}
  m_PrefabAsset: {fileID: 0}
  serializedVersion: 6
  m_Component:
  - component: {fileID: 845319690634876125}
  - component: {fileID: 8099172022300447775}
  m_Layer: 0
  m_Name: Main
  m_TagString: Untagged
  m_Icon: {fileID: 0}
  m_NavMeshLayer: 0
  m_StaticEditorFlags: 0
  m_IsActive: 1
--- !u!4 &845319690634876125
Transform:
  m_ObjectHideFlags: 0
  m_CorrespondingSourceObject: {fileID: 0}
  m_PrefabInstance: {fileID: 0}
  m_PrefabAsset: {fileID: 0}
  m_GameObject: {fileID: 75183989895643786}
  serializedVersion: 2
  m_LocalRotation: {x: 0, y: 0, z: 0, w: 1}
  m_LocalPosition: {x: 0, y: 0, z: 0}
  m_LocalScale: {x: 1, y: 1, z: 1}
  m_ConstrainProportionsScale: 0
  m_Children:
  - {fileID: 5038225088614177608}
  m_Father: {fileID: 0}
  m_LocalEulerAnglesHint: {x: 0, y: 0, z: 0}
--- !u!156049354 &8099172022300447775
Grid:
  m_ObjectHideFlags: 0
  m_CorrespondingSourceObject: {fileID: 0}
  m_PrefabInstance: {fileID: 0}
  m_PrefabAsset: {fileID: 0}
  m_GameObject: {fileID: 75183989895643786}
  m_Enabled: 1
  m_CellSize: {x: 1, y: 1, z: 0}
  m_CellGap: {x: 0, y: 0, z: 0}
  m_CellLayout: 0
  m_CellSwizzle: 0
--- !u!1 &6235185638528592892
GameObject:
  m_ObjectHideFlags: 0
  m_CorrespondingSourceObject: {fileID: 0}
  m_PrefabInstance: {fileID: 0}
  m_PrefabAsset: {fileID: 0}
  serializedVersion: 6
  m_Component:
  - component: {fileID: 5038225088614177608}
  - component: {fileID: 2955076657748903559}
  - component: {fileID: 6494316330786535196}
  m_Layer: 0
  m_Name: Layer1
  m_TagString: Untagged
  m_Icon: {fileID: 0}
  m_NavMeshLayer: 0
  m_StaticEditorFlags: 0
  m_IsActive: 1
--- !u!4 &5038225088614177608
Transform:
  m_ObjectHideFlags: 0
  m_CorrespondingSourceObject: {fileID: 0}
  m_PrefabInstance: {fileID: 0}
  m_PrefabAsset: {fileID: 0}
  m_GameObject: {fileID: 6235185638528592892}
  serializedVersion: 2
  m_LocalRotation: {x: -0, y: -0, z: -0, w: 1}
  m_LocalPosition: {x: 0, y: 0, z: 0}
  m_LocalScale: {x: 1, y: 1, z: 1}
  m_ConstrainProportionsScale: 0
  m_Children: []
  m_Father: {fileID: 845319690634876125}
  m_LocalEulerAnglesHint: {x: 0, y: 0, z: 0}
--- !u!1839735485 &2955076657748903559
Tilemap:
  m_ObjectHideFlags: 0
  m_CorrespondingSourceObject: {fileID: 0}
  m_PrefabInstance: {fileID: 0}
  m_PrefabAsset: {fileID: 0}
  m_GameObject: {fileID: 6235185638528592892}
  m_Enabled: 1
  m_Tiles:
  - first: {x: -1, y: -4, z: 0}
    second:
      serializedVersion: 2
      m_TileIndex: 15
      m_TileSpriteIndex: 15
      m_TileMatrixIndex: 0
      m_TileColorIndex: 0
      m_TileObjectToInstantiateIndex: 65535
      dummyAlignment: 0
      m_AllTileFlags: 1073741825
  - first: {x: 0, y: -4, z: 0}
    second:
      serializedVersion: 2
      m_TileIndex: 16
      m_TileSpriteIndex: 16
      m_TileMatrixIndex: 0
      m_TileColorIndex: 0
      m_TileObjectToInstantiateIndex: 65535
      dummyAlignment: 0
      m_AllTileFlags: 1073741825
  - first: {x: 1, y: -4, z: 0}
    second:
      serializedVersion: 2
      m_TileIndex: 17
      m_TileSpriteIndex: 17
      m_TileMatrixIndex: 0
      m_TileColorIndex: 0
      m_TileObjectToInstantiateIndex: 65535
      dummyAlignment: 0
      m_AllTileFlags: 1073741825
  - first: {x: 2, y: -4, z: 0}
    second:
      serializedVersion: 2
      m_TileIndex: 18
      m_TileSpriteIndex: 18
      m_TileMatrixIndex: 0
      m_TileColorIndex: 0
      m_TileObjectToInstantiateIndex: 65535
      dummyAlignment: 0
      m_AllTileFlags: 1073741825
  - first: {x: -1, y: -3, z: 0}
    second:
      serializedVersion: 2
      m_TileIndex: 10
      m_TileSpriteIndex: 10
      m_TileMatrixIndex: 0
      m_TileColorIndex: 0
      m_TileObjectToInstantiateIndex: 65535
      dummyAlignment: 0
      m_AllTileFlags: 1073741825
  - first: {x: 0, y: -3, z: 0}
    second:
      serializedVersion: 2
      m_TileIndex: 11
      m_TileSpriteIndex: 11
      m_TileMatrixIndex: 0
      m_TileColorIndex: 0
      m_TileObjectToInstantiateIndex: 65535
      dummyAlignment: 0
      m_AllTileFlags: 1073741825
  - first: {x: 1, y: -3, z: 0}
    second:
      serializedVersion: 2
      m_TileIndex: 12
      m_TileSpriteIndex: 12
      m_TileMatrixIndex: 0
      m_TileColorIndex: 0
      m_TileObjectToInstantiateIndex: 65535
      dummyAlignment: 0
      m_AllTileFlags: 1073741825
  - first: {x: 2, y: -3, z: 0}
    second:
      serializedVersion: 2
      m_TileIndex: 13
      m_TileSpriteIndex: 13
      m_TileMatrixIndex: 0
      m_TileColorIndex: 0
      m_TileObjectToInstantiateIndex: 65535
      dummyAlignment: 0
      m_AllTileFlags: 1073741825
  - first: {x: 3, y: -3, z: 0}
    second:
      serializedVersion: 2
      m_TileIndex: 14
      m_TileSpriteIndex: 14
      m_TileMatrixIndex: 0
      m_TileColorIndex: 0
      m_TileObjectToInstantiateIndex: 65535
      dummyAlignment: 0
      m_AllTileFlags: 1073741825
  - first: {x: -1, y: -2, z: 0}
    second:
      serializedVersion: 2
      m_TileIndex: 5
      m_TileSpriteIndex: 5
      m_TileMatrixIndex: 0
      m_TileColorIndex: 0
      m_TileObjectToInstantiateIndex: 65535
      dummyAlignment: 0
      m_AllTileFlags: 1073741825
  - first: {x: 0, y: -2, z: 0}
    second:
      serializedVersion: 2
      m_TileIndex: 6
      m_TileSpriteIndex: 6
      m_TileMatrixIndex: 0
      m_TileColorIndex: 0
      m_TileObjectToInstantiateIndex: 65535
      dummyAlignment: 0
      m_AllTileFlags: 1073741825
  - first: {x: 1, y: -2, z: 0}
    second:
      serializedVersion: 2
      m_TileIndex: 7
      m_TileSpriteIndex: 7
      m_TileMatrixIndex: 0
      m_TileColorIndex: 0
      m_TileObjectToInstantiateIndex: 65535
      dummyAlignment: 0
      m_AllTileFlags: 1073741825
  - first: {x: 2, y: -2, z: 0}
    second:
      serializedVersion: 2
      m_TileIndex: 8
      m_TileSpriteIndex: 8
      m_TileMatrixIndex: 0
      m_TileColorIndex: 0
      m_TileObjectToInstantiateIndex: 65535
      dummyAlignment: 0
      m_AllTileFlags: 1073741825
  - first: {x: 3, y: -2, z: 0}
    second:
      serializedVersion: 2
      m_TileIndex: 9
      m_TileSpriteIndex: 9
      m_TileMatrixIndex: 0
      m_TileColorIndex: 0
      m_TileObjectToInstantiateIndex: 65535
      dummyAlignment: 0
      m_AllTileFlags: 1073741825
  - first: {x: -1, y: -1, z: 0}
    second:
      serializedVersion: 2
      m_TileIndex: 0
      m_TileSpriteIndex: 0
      m_TileMatrixIndex: 0
      m_TileColorIndex: 0
      m_TileObjectToInstantiateIndex: 65535
      dummyAlignment: 0
      m_AllTileFlags: 1073741825
  - first: {x: 0, y: -1, z: 0}
    second:
      serializedVersion: 2
      m_TileIndex: 1
      m_TileSpriteIndex: 1
      m_TileMatrixIndex: 0
      m_TileColorIndex: 0
      m_TileObjectToInstantiateIndex: 65535
      dummyAlignment: 0
      m_AllTileFlags: 1073741825
  - first: {x: 1, y: -1, z: 0}
    second:
      serializedVersion: 2
      m_TileIndex: 2
      m_TileSpriteIndex: 2
      m_TileMatrixIndex: 0
      m_TileColorIndex: 0
      m_TileObjectToInstantiateIndex: 65535
      dummyAlignment: 0
      m_AllTileFlags: 1073741825
  - first: {x: 2, y: -1, z: 0}
    second:
      serializedVersion: 2
      m_TileIndex: 3
      m_TileSpriteIndex: 3
      m_TileMatrixIndex: 0
      m_TileColorIndex: 0
      m_TileObjectToInstantiateIndex: 65535
      dummyAlignment: 0
      m_AllTileFlags: 1073741825
  - first: {x: 3, y: -1, z: 0}
    second:
      serializedVersion: 2
      m_TileIndex: 4
      m_TileSpriteIndex: 4
      m_TileMatrixIndex: 0
      m_TileColorIndex: 0
      m_TileObjectToInstantiateIndex: 65535
      dummyAlignment: 0
      m_AllTileFlags: 1073741825
  m_AnimatedTiles: {}
  m_TileAssetArray:
  - m_RefCount: 1
    m_Data: {fileID: 11400000, guid: e81df9f93b9c2d54faeaca87755a5930, type: 2}
  - m_RefCount: 1
    m_Data: {fileID: 11400000, guid: 24de683e1be9cc445a944e2401772c8f, type: 2}
  - m_RefCount: 1
    m_Data: {fileID: 11400000, guid: 5ca9be17b7f73694dbc1b46545cd465e, type: 2}
  - m_RefCount: 1
    m_Data: {fileID: 11400000, guid: 5863464c821c2764cb1314a818307260, type: 2}
  - m_RefCount: 1
    m_Data: {fileID: 11400000, guid: 286319a1ea7be234dbbfb0d3e47bd2e0, type: 2}
  - m_RefCount: 1
    m_Data: {fileID: 11400000, guid: 897cd1f163e585a4d863f0310ef422ca, type: 2}
  - m_RefCount: 1
    m_Data: {fileID: 11400000, guid: 90a7b8d08dd4fce458d80dd4fcb6cc94, type: 2}
  - m_RefCount: 1
    m_Data: {fileID: 11400000, guid: 07f3f36460fe829449a4e79234a1bdec, type: 2}
  - m_RefCount: 1
    m_Data: {fileID: 11400000, guid: b2574781fd8179f4da14138652855e56, type: 2}
  - m_RefCount: 1
    m_Data: {fileID: 11400000, guid: 98a008e0e4c25a949abc80aff25edb38, type: 2}
  - m_RefCount: 1
    m_Data: {fileID: 11400000, guid: 153f1beaeb1106b44b49b21bf3cc7ac5, type: 2}
  - m_RefCount: 1
    m_Data: {fileID: 11400000, guid: 7603604f42a54574d92473f4f11c8518, type: 2}
  - m_RefCount: 1
    m_Data: {fileID: 11400000, guid: 6e26da5a6ce32f649bc21ec07cd86b96, type: 2}
  - m_RefCount: 1
    m_Data: {fileID: 11400000, guid: d54047a03d082dd48ae249b70caf8a36, type: 2}
  - m_RefCount: 1
    m_Data: {fileID: 11400000, guid: 39fb8748112aa844bb080bd36cf70de7, type: 2}
  - m_RefCount: 1
    m_Data: {fileID: 11400000, guid: 3a3f89ca14fb13443bcaf965b0b111fc, type: 2}
  - m_RefCount: 1
    m_Data: {fileID: 11400000, guid: 611c1df3f4f711e43a486db86852d1fd, type: 2}
  - m_RefCount: 1
    m_Data: {fileID: 11400000, guid: 0ccdeb4d378432743b481686cf96932c, type: 2}
  - m_RefCount: 1
    m_Data: {fileID: 11400000, guid: 937a25e5b85da2b4383857bd3e9c707b, type: 2}
  m_TileSpriteArray:
  - m_RefCount: 1
    m_Data: {fileID: -999013379, guid: c4313c1b3b6403f49a507e5a2c5a0aba, type: 3}
  - m_RefCount: 1
    m_Data: {fileID: -75874, guid: c4313c1b3b6403f49a507e5a2c5a0aba, type: 3}
  - m_RefCount: 1
    m_Data: {fileID: 559699970, guid: c4313c1b3b6403f49a507e5a2c5a0aba, type: 3}
  - m_RefCount: 1
    m_Data: {fileID: 256916801, guid: c4313c1b3b6403f49a507e5a2c5a0aba, type: 3}
  - m_RefCount: 1
    m_Data: {fileID: 1681964567, guid: c4313c1b3b6403f49a507e5a2c5a0aba, type: 3}
  - m_RefCount: 1
    m_Data: {fileID: 1386251995, guid: c4313c1b3b6403f49a507e5a2c5a0aba, type: 3}
  - m_RefCount: 1
    m_Data: {fileID: -175125038, guid: c4313c1b3b6403f49a507e5a2c5a0aba, type: 3}
  - m_RefCount: 1
    m_Data: {fileID: -600805773, guid: c4313c1b3b6403f49a507e5a2c5a0aba, type: 3}
  - m_RefCount: 1
    m_Data: {fileID: 1438486079, guid: c4313c1b3b6403f49a507e5a2c5a0aba, type: 3}
  - m_RefCount: 1
    m_Data: {fileID: 1955122855, guid: c4313c1b3b6403f49a507e5a2c5a0aba, type: 3}
  - m_RefCount: 1
    m_Data: {fileID: 902751319, guid: c4313c1b3b6403f49a507e5a2c5a0aba, type: 3}
  - m_RefCount: 1
    m_Data: {fileID: -96351503, guid: c4313c1b3b6403f49a507e5a2c5a0aba, type: 3}
  - m_RefCount: 1
    m_Data: {fileID: -1947609362, guid: c4313c1b3b6403f49a507e5a2c5a0aba, type: 3}
  - m_RefCount: 1
    m_Data: {fileID: 436686961, guid: c4313c1b3b6403f49a507e5a2c5a0aba, type: 3}
  - m_RefCount: 1
    m_Data: {fileID: 2077584147, guid: c4313c1b3b6403f49a507e5a2c5a0aba, type: 3}
  - m_RefCount: 1
    m_Data: {fileID: -1107042590, guid: c4313c1b3b6403f49a507e5a2c5a0aba, type: 3}
  - m_RefCount: 1
    m_Data: {fileID: -1521966683, guid: c4313c1b3b6403f49a507e5a2c5a0aba, type: 3}
  - m_RefCount: 1
    m_Data: {fileID: -519692580, guid: c4313c1b3b6403f49a507e5a2c5a0aba, type: 3}
  - m_RefCount: 1
    m_Data: {fileID: 2127612529, guid: c4313c1b3b6403f49a507e5a2c5a0aba, type: 3}
  m_TileMatrixArray:
  - m_RefCount: 19
    m_Data:
      e00: 1
      e01: 0
      e02: 0
      e03: 0
      e10: 0
      e11: 1
      e12: 0
      e13: 0
      e20: 0
      e21: 0
      e22: 1
      e23: 0
      e30: 0
      e31: 0
      e32: 0
      e33: 1
  m_TileColorArray:
  - m_RefCount: 19
    m_Data: {r: 1, g: 1, b: 1, a: 1}
  m_TileObjectToInstantiateArray: []
  m_AnimationFrameRate: 1
  m_Color: {r: 1, g: 1, b: 1, a: 1}
  m_Origin: {x: -1, y: -4, z: 0}
  m_Size: {x: 5, y: 4, z: 1}
  m_TileAnchor: {x: 0.5, y: 0.5, z: 0}
  m_TileOrientation: 0
  m_TileOrientationMatrix:
    e00: 1
    e01: 0
    e02: 0
    e03: 0
    e10: 0
    e11: 1
    e12: 0
    e13: 0
    e20: 0
    e21: 0
    e22: 1
    e23: 0
    e30: 0
    e31: 0
    e32: 0
    e33: 1
--- !u!483693784 &6494316330786535196
TilemapRenderer:
  m_ObjectHideFlags: 0
  m_CorrespondingSourceObject: {fileID: 0}
  m_PrefabInstance: {fileID: 0}
  m_PrefabAsset: {fileID: 0}
  m_GameObject: {fileID: 6235185638528592892}
  m_Enabled: 1
  m_CastShadows: 0
  m_ReceiveShadows: 0
  m_DynamicOccludee: 0
  m_StaticShadowCaster: 0
  m_MotionVectors: 1
  m_LightProbeUsage: 0
  m_ReflectionProbeUsage: 0
  m_RayTracingMode: 0
  m_RayTraceProcedural: 0
  m_RenderingLayerMask: 1
  m_RendererPriority: 0
  m_Materials:
  - {fileID: 10754, guid: 0000000000000000f000000000000000, type: 0}
  m_StaticBatchInfo:
    firstSubMesh: 0
    subMeshCount: 0
  m_StaticBatchRoot: {fileID: 0}
  m_ProbeAnchor: {fileID: 0}
  m_LightProbeVolumeOverride: {fileID: 0}
  m_ScaleInLightmap: 1
  m_ReceiveGI: 1
  m_PreserveUVs: 0
  m_IgnoreNormalsForChartDetection: 0
  m_ImportantGI: 0
  m_StitchLightmapSeams: 1
  m_SelectedEditorRenderState: 0
  m_MinimumChartSize: 4
  m_AutoUVMaxDistance: 0.5
  m_AutoUVMaxAngle: 89
  m_LightmapParameters: {fileID: 0}
  m_SortingLayerID: 0
  m_SortingLayer: 0
  m_SortingOrder: 0
  m_ChunkSize: {x: 32, y: 32, z: 32}
  m_ChunkCullingBounds: {x: 0, y: 0, z: 0}
  m_MaxChunkCount: 16
  m_MaxFrameAge: 16
  m_SortOrder: 0
  m_Mode: 0
  m_DetectChunkCullingBounds: 0
  m_MaskInteraction: 0
--- !u!114 &6392833633715609674
MonoBehaviour:
  m_ObjectHideFlags: 0
  m_CorrespondingSourceObject: {fileID: 0}
  m_PrefabInstance: {fileID: 0}
  m_PrefabAsset: {fileID: 0}
  m_GameObject: {fileID: 0}
  m_Enabled: 1
  m_EditorHideFlags: 0
  m_Script: {fileID: 12395, guid: 0000000000000000e000000000000000, type: 0}
  m_Name: Palette Settings
  m_EditorClassIdentifier: 
  cellSizing: 0
  m_TransparencySortMode: 0
  m_TransparencySortAxis: {x: 0, y: 0, z: 1}
