Library\Bee\artifacts\mvdfrm\Unity.2D.Animation.Runtime.ref.dll_B7961485F51EB435.mvfrm
Library\Bee\artifacts\mvdfrm\Unity.2D.Common.Runtime.ref.dll_E5EF155FD2A9DC14.mvfrm
Library\Bee\artifacts\mvdfrm\Unity.2D.IK.Runtime.ref.dll_8B0B10238FE8CA2B.mvfrm
Library\Bee\artifacts\mvdfrm\Unity.2D.PixelPerfect.ref.dll_3D64B16E5011B116.mvfrm
Library\Bee\artifacts\mvdfrm\Unity.2D.SpriteShape.Runtime.ref.dll_371409BB7D882EAD.mvfrm
Library\Bee\artifacts\mvdfrm\Unity.2D.Tilemap.Extras.ref.dll_A593BB962D7D7DA2.mvfrm
Library\Bee\artifacts\mvdfrm\Unity.Burst.ref.dll_14316E70964BB953.mvfrm
Library\Bee\artifacts\mvdfrm\Unity.Collections.ref.dll_914F3C16C2C534D8.mvfrm
Library\Bee\artifacts\mvdfrm\Unity.InternalAPIEngineBridge.001.ref.dll_9031ADE18CD0CF4E.mvfrm
Library\Bee\artifacts\mvdfrm\Unity.Mathematics.ref.dll_14D1A32168A0AD59.mvfrm
Library\Bee\artifacts\mvdfrm\Unity.TextMeshPro.ref.dll_B085F143991618E6.mvfrm
Library\Bee\artifacts\mvdfrm\Unity.Timeline.ref.dll_54050F91DBE64E14.mvfrm
Library\Bee\artifacts\mvdfrm\Unity.VisualScripting.Core.ref.dll_27ACA245D8399F39.mvfrm
Library\Bee\artifacts\mvdfrm\Unity.VisualScripting.Flow.ref.dll_6EBD829C5A4313E8.mvfrm
Library\Bee\artifacts\mvdfrm\Unity.VisualScripting.State.ref.dll_F0190167D28F2F4D.mvfrm
Library\Bee\artifacts\mvdfrm\UnityEngine.UI.ref.dll_FAE6DBEA21006BE5.mvfrm
Library\Bee\artifacts\mvdfrm\UnityEngine.AccessibilityModule.dll_E52F8B9613F59318.mvfrm
Library\Bee\artifacts\mvdfrm\UnityEngine.AIModule.dll_253318D56531D1E2.mvfrm
Library\Bee\artifacts\mvdfrm\UnityEngine.AndroidJNIModule.dll_01A42DA9EDE788A0.mvfrm
Library\Bee\artifacts\mvdfrm\UnityEngine.AnimationModule.dll_323C613E7EFBEBBE.mvfrm
Library\Bee\artifacts\mvdfrm\UnityEngine.ARModule.dll_DEA5DDD8C24F30AB.mvfrm
Library\Bee\artifacts\mvdfrm\UnityEngine.AssetBundleModule.dll_83ABE4BD242E06AC.mvfrm
Library\Bee\artifacts\mvdfrm\UnityEngine.AudioModule.dll_E55246BA06EF2D30.mvfrm
Library\Bee\artifacts\mvdfrm\UnityEngine.ClothModule.dll_4C3AA3B4E10C0C14.mvfrm
Library\Bee\artifacts\mvdfrm\UnityEngine.ClusterInputModule.dll_D28B90F82CEF49CA.mvfrm
Library\Bee\artifacts\mvdfrm\UnityEngine.ClusterRendererModule.dll_E8B2AC6949E3DD57.mvfrm
Library\Bee\artifacts\mvdfrm\UnityEngine.ContentLoadModule.dll_1CC23DFDF2B0AE99.mvfrm
Library\Bee\artifacts\mvdfrm\UnityEngine.CoreModule.dll_18E8A9B57CB58C79.mvfrm
Library\Bee\artifacts\mvdfrm\UnityEngine.CrashReportingModule.dll_A342178E013625B1.mvfrm
Library\Bee\artifacts\mvdfrm\UnityEngine.DirectorModule.dll_8958D3BBDD30B0D6.mvfrm
Library\Bee\artifacts\mvdfrm\UnityEngine.dll_18EAB34E6CD313CC.mvfrm
Library\Bee\artifacts\mvdfrm\UnityEngine.DSPGraphModule.dll_8EAA35254F9181F7.mvfrm
Library\Bee\artifacts\mvdfrm\UnityEngine.GameCenterModule.dll_2BF177C4B4287991.mvfrm
Library\Bee\artifacts\mvdfrm\UnityEngine.GIModule.dll_BD6F61E300E0B9FC.mvfrm
Library\Bee\artifacts\mvdfrm\UnityEngine.GridModule.dll_F659C5A3950A2270.mvfrm
Library\Bee\artifacts\mvdfrm\UnityEngine.HotReloadModule.dll_B3851F445A2F0740.mvfrm
Library\Bee\artifacts\mvdfrm\UnityEngine.ImageConversionModule.dll_54A4AA19CC08954B.mvfrm
Library\Bee\artifacts\mvdfrm\UnityEngine.IMGUIModule.dll_1DB1E620CD20C111.mvfrm
Library\Bee\artifacts\mvdfrm\UnityEngine.InputLegacyModule.dll_14F0FFDBBC1FBC9D.mvfrm
Library\Bee\artifacts\mvdfrm\UnityEngine.InputModule.dll_4BC80E6A7D2751D4.mvfrm
Library\Bee\artifacts\mvdfrm\UnityEngine.JSONSerializeModule.dll_454714D21330F3A2.mvfrm
Library\Bee\artifacts\mvdfrm\UnityEngine.LocalizationModule.dll_10D85B4AC46B3CC3.mvfrm
Library\Bee\artifacts\mvdfrm\UnityEngine.ParticleSystemModule.dll_F65460DA6F47B13F.mvfrm
Library\Bee\artifacts\mvdfrm\UnityEngine.PerformanceReportingModule.dll_978C2B123895DA38.mvfrm
Library\Bee\artifacts\mvdfrm\UnityEngine.Physics2DModule.dll_7EE2512F1FF8E353.mvfrm
Library\Bee\artifacts\mvdfrm\UnityEngine.PhysicsModule.dll_BC51EBC05B955E01.mvfrm
Library\Bee\artifacts\mvdfrm\UnityEngine.ProfilerModule.dll_BB9F0CF2768A37E3.mvfrm
Library\Bee\artifacts\mvdfrm\UnityEngine.PropertiesModule.dll_592CB7032713DDCD.mvfrm
Library\Bee\artifacts\mvdfrm\UnityEngine.RuntimeInitializeOnLoadManagerInitializerModule.dll_BB6B787465257A1C.mvfrm
Library\Bee\artifacts\mvdfrm\UnityEngine.ScreenCaptureModule.dll_5F2EC257279D2004.mvfrm
Library\Bee\artifacts\mvdfrm\UnityEngine.SharedInternalsModule.dll_D8B5E8EF4336909B.mvfrm
Library\Bee\artifacts\mvdfrm\UnityEngine.SpriteMaskModule.dll_151DEA54D5980F0B.mvfrm
Library\Bee\artifacts\mvdfrm\UnityEngine.SpriteShapeModule.dll_9D0D1217D9D03EB6.mvfrm
Library\Bee\artifacts\mvdfrm\UnityEngine.StreamingModule.dll_E6D14E8ECE83A2FC.mvfrm
Library\Bee\artifacts\mvdfrm\UnityEngine.SubstanceModule.dll_C37C62D819D6A10A.mvfrm
Library\Bee\artifacts\mvdfrm\UnityEngine.SubsystemsModule.dll_7FCB50B6A3DFF71E.mvfrm
Library\Bee\artifacts\mvdfrm\UnityEngine.TerrainModule.dll_D698672F3153A6EF.mvfrm
Library\Bee\artifacts\mvdfrm\UnityEngine.TerrainPhysicsModule.dll_F6CF09AD888AABCC.mvfrm
Library\Bee\artifacts\mvdfrm\UnityEngine.TextCoreFontEngineModule.dll_B8E2331A925B21D7.mvfrm
Library\Bee\artifacts\mvdfrm\UnityEngine.TextCoreTextEngineModule.dll_00CA698C21DEDAF5.mvfrm
Library\Bee\artifacts\mvdfrm\UnityEngine.TextRenderingModule.dll_886E3461DED49FF9.mvfrm
Library\Bee\artifacts\mvdfrm\UnityEngine.TilemapModule.dll_7594CEB0491087F8.mvfrm
Library\Bee\artifacts\mvdfrm\UnityEngine.TLSModule.dll_93E5BEFC638AC695.mvfrm
Library\Bee\artifacts\mvdfrm\UnityEngine.UIElementsModule.dll_8409B21EA70C3315.mvfrm
Library\Bee\artifacts\mvdfrm\UnityEngine.UIModule.dll_20A6B702C178D78E.mvfrm
Library\Bee\artifacts\mvdfrm\UnityEngine.UmbraModule.dll_6026F2D29415D8A3.mvfrm
Library\Bee\artifacts\mvdfrm\UnityEngine.UnityAnalyticsCommonModule.dll_32CAE856527E7896.mvfrm
Library\Bee\artifacts\mvdfrm\UnityEngine.UnityAnalyticsModule.dll_15F3D1A41B6F033B.mvfrm
Library\Bee\artifacts\mvdfrm\UnityEngine.UnityConnectModule.dll_404E9FF175EF77AF.mvfrm
Library\Bee\artifacts\mvdfrm\UnityEngine.UnityCurlModule.dll_6559026FEF0FDDAB.mvfrm
Library\Bee\artifacts\mvdfrm\UnityEngine.UnityTestProtocolModule.dll_7C68940A2C6FC799.mvfrm
Library\Bee\artifacts\mvdfrm\UnityEngine.UnityWebRequestAssetBundleModule.dll_9ECCCDE90D4E9A4C.mvfrm
Library\Bee\artifacts\mvdfrm\UnityEngine.UnityWebRequestAudioModule.dll_0F887EF0BF00A4D0.mvfrm
Library\Bee\artifacts\mvdfrm\UnityEngine.UnityWebRequestModule.dll_6643B1C3D6FD2FCA.mvfrm
Library\Bee\artifacts\mvdfrm\UnityEngine.UnityWebRequestTextureModule.dll_BDBD00B55992F4A5.mvfrm
Library\Bee\artifacts\mvdfrm\UnityEngine.UnityWebRequestWWWModule.dll_CB8CAEE8119E9761.mvfrm
Library\Bee\artifacts\mvdfrm\UnityEngine.VehiclesModule.dll_011BCD3B575A8071.mvfrm
Library\Bee\artifacts\mvdfrm\UnityEngine.VFXModule.dll_14C4576B39F83002.mvfrm
Library\Bee\artifacts\mvdfrm\UnityEngine.VideoModule.dll_0A5BCB24C98148D5.mvfrm
Library\Bee\artifacts\mvdfrm\UnityEngine.VirtualTexturingModule.dll_1061E6E4B3EB89D7.mvfrm
Library\Bee\artifacts\mvdfrm\UnityEngine.VRModule.dll_7378DD8863335D06.mvfrm
Library\Bee\artifacts\mvdfrm\UnityEngine.WindModule.dll_8F3784DE0DEC0AE2.mvfrm
Library\Bee\artifacts\mvdfrm\UnityEngine.XRModule.dll_A637A08CEC6DAA64.mvfrm
Library\Bee\artifacts\mvdfrm\Unity.Collections.LowLevel.ILSupport.dll_2E40CE80E145E521.mvfrm
Library\Bee\artifacts\mvdfrm\Unity.VisualScripting.Antlr3.Runtime.dll_2521796BDD14ED74.mvfrm