Library\Bee\artifacts\mvdfrm\Unity.2D.Common.Runtime.ref.dll_77798F371487C3E9.mvfrm
Library\Bee\artifacts\mvdfrm\Unity.Burst.ref.dll_F30DFA20C0DD1968.mvfrm
Library\Bee\artifacts\mvdfrm\Unity.Collections.ref.dll_656D7410E7809ECD.mvfrm
Library\Bee\artifacts\mvdfrm\Unity.InternalAPIEngineBridge.001.ref.dll_B4F0ACC15A996E43.mvfrm
Library\Bee\artifacts\mvdfrm\Unity.Mathematics.ref.dll_E8EFDB1B8D5C174E.mvfrm
Library\Bee\artifacts\mvdfrm\UnityEditor.UI.ref.dll_4C98D3F7040CD4F5.mvfrm
Library\Bee\artifacts\mvdfrm\UnityEngine.UI.ref.dll_08FEAA520A2EFD60.mvfrm
Library\Bee\artifacts\mvdfrm\UnityEditor.Graphs.dll_16C300B47586B7F2.mvfrm
Library\Bee\artifacts\mvdfrm\UnityEditor.CoreModule.dll_826F5E410A69EDC0.mvfrm
Library\Bee\artifacts\mvdfrm\UnityEditor.DeviceSimulatorModule.dll_26D72C9BD53B0C01.mvfrm
Library\Bee\artifacts\mvdfrm\UnityEditor.DiagnosticsModule.dll_31154C165A8AD60F.mvfrm
Library\Bee\artifacts\mvdfrm\UnityEditor.dll_59F08A83483F4FD5.mvfrm
Library\Bee\artifacts\mvdfrm\UnityEditor.EditorToolbarModule.dll_E9DAC7CC058E43B1.mvfrm
Library\Bee\artifacts\mvdfrm\UnityEditor.GraphViewModule.dll_B4DF04D440074E06.mvfrm
Library\Bee\artifacts\mvdfrm\UnityEditor.PresetsUIModule.dll_70453DB6425FA60B.mvfrm
Library\Bee\artifacts\mvdfrm\UnityEditor.QuickSearchModule.dll_BC24CD23B361D268.mvfrm
Library\Bee\artifacts\mvdfrm\UnityEditor.SceneTemplateModule.dll_0D7A388A047AEDE9.mvfrm
Library\Bee\artifacts\mvdfrm\UnityEditor.SceneViewModule.dll_F38EE7DC352A1B14.mvfrm
Library\Bee\artifacts\mvdfrm\UnityEditor.TextCoreFontEngineModule.dll_2434AD973CCDC73E.mvfrm
Library\Bee\artifacts\mvdfrm\UnityEditor.TextCoreTextEngineModule.dll_6C1CE408CC51805C.mvfrm
Library\Bee\artifacts\mvdfrm\UnityEditor.UIBuilderModule.dll_0967B1F0B2BFC73A.mvfrm
Library\Bee\artifacts\mvdfrm\UnityEditor.UIElementsModule.dll_1676480529B4E4FC.mvfrm
Library\Bee\artifacts\mvdfrm\UnityEditor.UIElementsSamplesModule.dll_CE020C1CCABA2031.mvfrm
Library\Bee\artifacts\mvdfrm\UnityEditor.UnityConnectModule.dll_622CBEFF70E57C76.mvfrm
Library\Bee\artifacts\mvdfrm\UnityEngine.AccessibilityModule.dll_401FA42104F11586.mvfrm
Library\Bee\artifacts\mvdfrm\UnityEngine.AIModule.dll_6CEECA653C278414.mvfrm
Library\Bee\artifacts\mvdfrm\UnityEngine.AndroidJNIModule.dll_94BF30D872D453D2.mvfrm
Library\Bee\artifacts\mvdfrm\UnityEngine.AnimationModule.dll_836480FD1A6422AC.mvfrm
Library\Bee\artifacts\mvdfrm\UnityEngine.ARModule.dll_26618F689944E2DD.mvfrm
Library\Bee\artifacts\mvdfrm\UnityEngine.AssetBundleModule.dll_000E001515C8875A.mvfrm
Library\Bee\artifacts\mvdfrm\UnityEngine.AudioModule.dll_19CE24CFE5C2F89E.mvfrm
Library\Bee\artifacts\mvdfrm\UnityEngine.ClothModule.dll_80B681CABFDFD782.mvfrm
Library\Bee\artifacts\mvdfrm\UnityEngine.ClusterInputModule.dll_E1C93415226D4F3C.mvfrm
Library\Bee\artifacts\mvdfrm\UnityEngine.ClusterRendererModule.dll_2C83EF0D44F61985.mvfrm
Library\Bee\artifacts\mvdfrm\UnityEngine.ContentLoadModule.dll_99245955E44B2F47.mvfrm
Library\Bee\artifacts\mvdfrm\UnityEngine.CoreModule.dll_A5903193B26F58EB.mvfrm
Library\Bee\artifacts\mvdfrm\UnityEngine.CrashReportingModule.dll_B6BA3F72276F2D63.mvfrm
Library\Bee\artifacts\mvdfrm\UnityEngine.DirectorModule.dll_77F0B814324D09C8.mvfrm
Library\Bee\artifacts\mvdfrm\UnityEngine.dll_8C94D15BA6B2DCBA.mvfrm
Library\Bee\artifacts\mvdfrm\UnityEngine.DSPGraphModule.dll_7D42197DA4ADDAE9.mvfrm
Library\Bee\artifacts\mvdfrm\UnityEngine.GameCenterModule.dll_BF0C7AF3391544C3.mvfrm
Library\Bee\artifacts\mvdfrm\UnityEngine.GIModule.dll_052B1372D7D66C2E.mvfrm
Library\Bee\artifacts\mvdfrm\UnityEngine.GridModule.dll_83014D81CAC3EEE2.mvfrm
Library\Bee\artifacts\mvdfrm\UnityEngine.HotReloadModule.dll_04AD3F02F5973E2E.mvfrm
Library\Bee\artifacts\mvdfrm\UnityEngine.ImageConversionModule.dll_9875ECBDC71AD179.mvfrm
Library\Bee\artifacts\mvdfrm\UnityEngine.IMGUIModule.dll_522DC436ABF48C7F.mvfrm
Library\Bee\artifacts\mvdfrm\UnityEngine.InputLegacyModule.dll_91531B33ADBA3D4B.mvfrm
Library\Bee\artifacts\mvdfrm\UnityEngine.InputModule.dll_8043EC805BFB1D42.mvfrm
Library\Bee\artifacts\mvdfrm\UnityEngine.JSONSerializeModule.dll_A0372D5D042C7610.mvfrm
Library\Bee\artifacts\mvdfrm\UnityEngine.LocalizationModule.dll_2015FE67B9E94235.mvfrm
Library\Bee\artifacts\mvdfrm\UnityEngine.ParticleSystemModule.dll_09CC88BE9580B8F1.mvfrm
Library\Bee\artifacts\mvdfrm\UnityEngine.PerformanceReportingModule.dll_F74729113EF498AA.mvfrm
Library\Bee\artifacts\mvdfrm\UnityEngine.Physics2DModule.dll_D00A70EDBB611A41.mvfrm
Library\Bee\artifacts\mvdfrm\UnityEngine.PhysicsModule.dll_67E9834C5353032F.mvfrm
Library\Bee\artifacts\mvdfrm\UnityEngine.ProfilerModule.dll_AA36F14ACBA690D5.mvfrm
Library\Bee\artifacts\mvdfrm\UnityEngine.PropertiesModule.dll_EC47BA31AC00A8FF.mvfrm
Library\Bee\artifacts\mvdfrm\UnityEngine.RuntimeInitializeOnLoadManagerInitializerModule.dll_1D0F0F81A9688D0A.mvfrm
Library\Bee\artifacts\mvdfrm\UnityEngine.ScreenCaptureModule.dll_BA1EDAE21898A272.mvfrm
Library\Bee\artifacts\mvdfrm\UnityEngine.SharedInternalsModule.dll_1C872B933E48CCC9.mvfrm
Library\Bee\artifacts\mvdfrm\UnityEngine.SpriteMaskModule.dll_A838ED835A84DA3D.mvfrm
Library\Bee\artifacts\mvdfrm\UnityEngine.SpriteShapeModule.dll_196F2D6FCB6ABF64.mvfrm
Library\Bee\artifacts\mvdfrm\UnityEngine.StreamingModule.dll_37F96E4D69EBD9EA.mvfrm
Library\Bee\artifacts\mvdfrm\UnityEngine.SubstanceModule.dll_14A48296B53ED7F8.mvfrm
Library\Bee\artifacts\mvdfrm\UnityEngine.SubsystemsModule.dll_12E653E528CCC250.mvfrm
Library\Bee\artifacts\mvdfrm\UnityEngine.TerrainModule.dll_822FFEBB29114C1D.mvfrm
Library\Bee\artifacts\mvdfrm\UnityEngine.TerrainPhysicsModule.dll_0A473191AEC3B37E.mvfrm
Library\Bee\artifacts\mvdfrm\UnityEngine.TextCoreFontEngineModule.dll_A29428EA4FCB8609.mvfrm
Library\Bee\artifacts\mvdfrm\UnityEngine.TextCoreTextEngineModule.dll_EA7C5F5BDF4F3F27.mvfrm
Library\Bee\artifacts\mvdfrm\UnityEngine.TextRenderingModule.dll_E35E4CECCFD02267.mvfrm
Library\Bee\artifacts\mvdfrm\UnityEngine.TilemapModule.dll_212C663C40CE2D26.mvfrm
Library\Bee\artifacts\mvdfrm\UnityEngine.TLSModule.dll_ECD841A23F4E7043.mvfrm
Library\Bee\artifacts\mvdfrm\UnityEngine.UIElementsModule.dll_1724B54D2BF8FE47.mvfrm
Library\Bee\artifacts\mvdfrm\UnityEngine.UIModule.dll_68626892986E89C0.mvfrm
Library\Bee\artifacts\mvdfrm\UnityEngine.UmbraModule.dll_94A2D0E872E9A411.mvfrm
Library\Bee\artifacts\mvdfrm\UnityEngine.UnityAnalyticsCommonModule.dll_9285E65558DD3708.mvfrm
Library\Bee\artifacts\mvdfrm\UnityEngine.UnityAnalyticsModule.dll_296BF98841A80AED.mvfrm
Library\Bee\artifacts\mvdfrm\UnityEngine.UnityConnectModule.dll_4F8C430E6B6D7D21.mvfrm
Library\Bee\artifacts\mvdfrm\UnityEngine.UnityCurlModule.dll_B681222E8A781499.mvfrm
Library\Bee\artifacts\mvdfrm\UnityEngine.UnityTestProtocolModule.dll_89C4C20F24B57587.mvfrm
Library\Bee\artifacts\mvdfrm\UnityEngine.UnityWebRequestAssetBundleModule.dll_32C0B769540F177E.mvfrm
Library\Bee\artifacts\mvdfrm\UnityEngine.UnityWebRequestAudioModule.dll_6F437CEFC55F6342.mvfrm
Library\Bee\artifacts\mvdfrm\UnityEngine.UnityWebRequestModule.dll_AA14F467D20F6BF8.mvfrm
Library\Bee\artifacts\mvdfrm\UnityEngine.UnityWebRequestTextureModule.dll_4E1C0F6FF5EDD557.mvfrm
Library\Bee\artifacts\mvdfrm\UnityEngine.UnityWebRequestWWWModule.dll_B53EA4B7CF0EFB93.mvfrm
Library\Bee\artifacts\mvdfrm\UnityEngine.VehiclesModule.dll_EFB3B193AC76D963.mvfrm
Library\Bee\artifacts\mvdfrm\UnityEngine.VFXModule.dll_6DB6DA1115BBD9B0.mvfrm
Library\Bee\artifacts\mvdfrm\UnityEngine.VideoModule.dll_3ED7A93AA8551443.mvfrm
Library\Bee\artifacts\mvdfrm\UnityEngine.VirtualTexturingModule.dll_BDDEAD5241925BC9.mvfrm
Library\Bee\artifacts\mvdfrm\UnityEngine.VRModule.dll_BB348F183A290F38.mvfrm
Library\Bee\artifacts\mvdfrm\UnityEngine.WindModule.dll_1BDF0CBC43A5D754.mvfrm
Library\Bee\artifacts\mvdfrm\UnityEngine.XRModule.dll_EDF3521CC3635C96.mvfrm
Library\Bee\artifacts\mvdfrm\Unity.Android.Gradle.dll_F789FCD779D117A8.mvfrm
Library\Bee\artifacts\mvdfrm\Unity.Android.GradleProject.dll_7558AB6ECC02AA8D.mvfrm
Library\Bee\artifacts\mvdfrm\Unity.Android.Types.dll_2AC8D891059DEB14.mvfrm
Library\Bee\artifacts\mvdfrm\UnityEditor.Android.Extensions.dll_789001FFF19A1CE8.mvfrm
Library\Bee\artifacts\mvdfrm\UnityEditor.iOS.Extensions.Common.dll_4BE2FBAB7EBDA745.mvfrm
Library\Bee\artifacts\mvdfrm\UnityEditor.iOS.Extensions.dll_188EC8DC75547310.mvfrm
Library\Bee\artifacts\mvdfrm\UnityEditor.iOS.Extensions.Xcode.dll_D5C92219369509D7.mvfrm
Library\Bee\artifacts\mvdfrm\UnityEditor.WebGL.Extensions.dll_7BBE3B577CE08CF0.mvfrm
Library\Bee\artifacts\mvdfrm\UnityEditor.WindowsStandalone.Extensions.dll_88E127C2D0F01FE0.mvfrm
Library\Bee\artifacts\mvdfrm\Unity.Plastic.Antlr3.Runtime.dll_06567403B026473B.mvfrm
Library\Bee\artifacts\mvdfrm\Unity.Plastic.Newtonsoft.Json.dll_2AAE32905E8C08CA.mvfrm
Library\Bee\artifacts\mvdfrm\Unity.Collections.LowLevel.ILSupport.dll_2E40CE80E145E521.mvfrm
Library\Bee\artifacts\mvdfrm\Unity.VisualScripting.IonicZip.dll_BE5647D59BA90757.mvfrm
Library\Bee\artifacts\mvdfrm\Unity.VisualScripting.YamlDotNet.dll_73B4528AAC4BDD55.mvfrm
Library\Bee\artifacts\mvdfrm\Unity.VisualScripting.TextureAssets.dll_0AD27BDE6D193B4D.mvfrm
Library\Bee\artifacts\mvdfrm\Unity.VisualScripting.Antlr3.Runtime.dll_2521796BDD14ED74.mvfrm